{  
   "gcm_api_key" :"AIzaSyCIFO9Ppal9o8JEVePoIxXwsrqpXxarP0Q",
 
   "error" : {  
 
      "msg_invalid_param"   : {  
 
         "result"   : "error",
         "message"  : "Invalid request parameters."
 
      },
 
      "msg_empty_param"     : {
 
        "result"    :"error",
        "message"   :"Parameters should not be empty."
 
      },
 
      "msg_reg_failure"     : {
 
        "result"    :"error",
        "message"   :"Registration failure."
 
      },
 
      "msg_reg_exists"  : {
 
        "result"    :"error",
        "message"   :"Indicator already registered."
 
      },
 
      "msg_del_failure" : {
 
         "result" : "error",
         "message" : "Unable to remove Indicator"
 
      },
 
      "msg_send_failure" : {
 
         "result" : "error",
         "message" : "Unable to send message"
 
      }
 
   },
 
   "success" : {
 
      "msg_reg_success" : {
 
        "result"    : "success",
        "message"   : "Indicator successfully stored."
 
      },
 
        "msg_del_success"  : {
 
         "result" :  "success",
         "message" : "Indicator successfully removed"
 
        },
 
        "msg_send_success"  : {
 
         "result" :  "success",
         "message" : "Message successfully sent !"
 
        }
   }
}